{
  "name": "olddragon",
  "title": "Old Dragon",
  "description": "Sistema para o RPG Old Dragon (da Buró Editora, antiga RedBox)",
  "version": "0.0.2",
  "templateVersion": 2,
  "author": "Alysson Bruno",
  "scripts": [
    "scripts/system-script-1.js",
    "scripts/system-script-2.js"
  ],
  "esmodules": [
    "scripts/system-module-1.mjs"
  ],
  "styles": [
    "styles/system-styles-1.css",
    "styles/system-styles-2.css"
  ],
  "packs": [
    {
      "name": "monsters",
      "label": "Monsters",
      "system": "olddragon",
      "module": "olddragon",
      "path": "packs/monsters.db",
      "entity": "Actor"
    },
    {
      "name": "items",
      "label": "Items",
      "system": "olddradon",
      "module": "olddragon",
      "path": "packs/items.db",
      "entity": "Item"
    }
  ],
  "languages": [
    {
      "lang": "pt",
      "name": "Brazilian Portuguese",
      "path": "lang/pt.json"
    },
    {
      "lang": "en",
      "name": "English",
      "path": "lang/en.json"
    }
  ],
  "socket": false,
  "initiative": "1d20",
  "gridDistance": 10,
  "gridUnits": "un",
  "primaryTokenAttribute": "attributes.hp",
  "secondaryTokenAttribute": null,
  "minimumCoreVersion": "0.7.0",
  "compatibleCoreVersion": "0.7.5",
  "url": "https://gitlab.com/alyssonbruno/olddragon/",
  "manifest": "https://gitlab.com/alyssonbruno/olddragon/raw/master/system.json",
  "download": "https://gitlab.com/alyssonbruno/olddragon/-/archive/master/olddragon-master.zip"
}
